<?xml version="1.0" encoding="UTF-8" standalone="no"?>
<!-- Created with Inkscape (http://www.inkscape.org/) -->

<svg
   xmlns:dc="http://purl.org/dc/elements/1.1/"
   xmlns:cc="http://creativecommons.org/ns#"
   xmlns:rdf="http://www.w3.org/1999/02/22-rdf-syntax-ns#"
   xmlns:svg="http://www.w3.org/2000/svg"
   xmlns="http://www.w3.org/2000/svg"
   xmlns:xlink="http://www.w3.org/1999/xlink"
   xmlns:sodipodi="http://sodipodi.sourceforge.net/DTD/sodipodi-0.dtd"
   xmlns:inkscape="http://www.inkscape.org/namespaces/inkscape"
   width="7.5870767mm"
   height="3.7032151mm"
   viewBox="0 0 7.587077 3.7032148"
   version="1.1"
   id="svg4649"
   inkscape:version="0.92.1 r15371"
   sodipodi:docname="logo.svg"
   inkscape:export-filename="/home/nithin/Downloads/Telegram Desktop/TECHDAYS4.0/main/images/logo.png"
   inkscape:export-xdpi="300"
   inkscape:export-ydpi="300">
  <defs
     id="defs4643" />
  <sodipodi:namedview
     id="base"
     pagecolor="#ffffff"
     bordercolor="#666666"
     borderopacity="1.0"
     inkscape:pageopacity="0.0"
     inkscape:pageshadow="2"
     inkscape:zoom="5.6"
     inkscape:cx="31.47316"
     inkscape:cy="29.637008"
     inkscape:document-units="mm"
     inkscape:current-layer="layer1"
     showgrid="false"
     inkscape:window-width="1366"
     inkscape:window-height="704"
     inkscape:window-x="0"
     inkscape:window-y="27"
     inkscape:window-maximized="1" />
  <metadata
     id="metadata4646">
    <rdf:RDF>
      <cc:Work
         rdf:about="">
        <dc:format>image/svg+xml</dc:format>
        <dc:type
           rdf:resource="http://purl.org/dc/dcmitype/StillImage" />
        <dc:title></dc:title>
      </cc:Work>
    </rdf:RDF>
  </metadata>
  <g
     inkscape:label="Layer 1"
     inkscape:groupmode="layer"
     id="layer1"
     transform="translate(-9.2985783,-54.223949)">
    <image
       y="54.223949"
       x="9.2985783"
       id="image4533"
       xlink:href="data:image/png;base64,iVBORw0KGgoAAAANSUhEUgAAAVAAAACkCAYAAADBnHZiAAAABHNCSVQICAgIfAhkiAAAIABJREFU eJzsnXl8lNX1/9/nPjOTDcIO2dgkuCHuG5WAS7GLS9VW27prRQWp1traWqtdaavWVq2i1la6qNVa rbXLz69LVXCviisIJCCQTAIoO9lmnnt+f9wJhjDPJDOZJKDzfjUvS57l3snMnOfes3wO5MiRI0eO HDly5MiR4xOMguhsTF/PI0eOHJ0jfT2BHLBg1qTwAA3v6Vs9UZDPClpkVe+rDPk3y60vxvp6fjly 5EhOqK8n8Ell0ez9IqHaAfsLnCA+J1h0ghFJvB+CETlgWVw2Anf16URz5MgRSM6A9iLVV+yVR/Ow w0U5hVpOUNFRgngAgtAaET4sDVO42TJgXRw1nELOgObIsdOS28L3MIu+Ma1fuKV5koqcLKrHicio 9sdbCg1rS8PUV4T5YESYeEioXNTMXgsaUXR9v+bGkSV3v7a1r+afI0eOYHIr0B5gxfRpA2OhlioR TrItLcciUm5AEPe8ai4yrC4LUz8qwvohIeKh7Z9j64ck3hZlwOa8ognAK738EnLkyNEFcgY0CyjI 0lmThoj1phk1X4xJ8zEgAwAxAirQ2M9jdXmY6MgI64d4qAle/G8e4NEaESKtGFQPImdAc+TYKfnE GdAV06flh21jUZOnhYTyiuPE841PyIStQb0WG7e+MWar2tBG+vXbVHnjoy2p7rdk5uSxNSq/ML58 RoQBiPNnqoHNxR6ryyPUV4TZODiEdtFh0ponbB3gEVkbB5EpwO1ZeOlpoyANMKQZvK6cXwRbh8OW TMaqhjwPBnb1/DHwoUA8k7HaqIUCgVPL4U/duQ/AKhgUh0im1xdD02DYKuBncv0iiOTDoEzHz4O4 hcYKaMr0HrUwOAbhdK8rAFsCazMdty/52PpAqy86eph4LQdazCiD7GOVMQZGKTpChDwgT1UKRHbM uVSlVdCtCE2qRBHeEHhF4PWxG0e9Iffeu+1DXjOj6ilEjga30tw0yKOhIkJDRYTNA7wuG82O7PNa I2MXNwMs3mRiEw/og3SmeigEfm9hmMCeCv1SnW/g2RI4SUDTHasOvgNc1clpcYF3gWaFWeWwNN1x 2lMLpxu4VWD3UvigO/eqg+sEDgHGKQzI4Bat4oxXvcJCheeARypgXVcujsL+wHUKw4CxpPndThju FoWNBpYovGrgPyXwWlfvEYWbFPYWGJuYR2djblZYLLC+FE7L5HPT13wsDejSmVXnGrgFpH9n52q7 H0PqP4iCChoFedSzcn8LssAzfr0gRfWjIizcv5DGftnJgS9f2cqBz21B0eaQNXuOuePZFVm5cZpo 4k/SAEN8+KOBz6c4vcXCwRXwTjpjrID8ELwusFeK05bF4LhRsBigu182BS8KTwtUCXyjFG7u5v0E YCXkhWC2wDcDTl0PPNPuuiG41z1Udvz4bQaub4QbKiHlTqjdHKQeDld4WGBEwHnPC6xJ/DOiUAmM lQ4raPd552kfLh3pHlxdGZ86yAd+YeDSFKf/24ezKmADdP/97Cs+dga0+qKjh2Fii0VkkAJbENYJ 1COsRVgLbBBhM9CI0IzbB1rcpycC5KMMAIaqUo4yCihTpX+791gVC7yEaLkgo60H7+1XSM0e+Vn5 qxZu9TnqnxsxFhR7auWc5/7W/bt2jwaYYOF1UmxVFW4ohyvTuW8dHAn8F/eFDXoCzSqD29K5byoa 4BDfGZKwhTeb4bCuGKmusB4GNDlDv4MBU3ilDA5vbzAWQ/8iOMHADUBZkmse8eDMEuhyNkYUZgPf S3ZM4NhSeKLt37PBnAsTBb6v8MWOhlzhAw++VALPdnX8BijyYZUkcSsoWIX90n3Q7ox87HygvtjB IaFYgTfF8IwYXhHDWtJ5xMl2/zG4vWulKpPUMlktw0QN8CmQ51Q1Ynwp3XtBI4M+jPPmIUXEIt2z oo1FHi2FHgVbfETNwUCfG9ACiG6BFoEahfGS/PNzVi38IB1fmoFzLCDuC3pUsnOkm9v1jvhwoST8 dQYmFsCngKezce9BsDHqXAJJV4Ad2cOtNO9rgLd8tyoe2v64wEk+/FzhsjRWajVdne/VYK+GNxfA 6SVwh8L5HcYf6sOD9XBwKazsyj2XQss4qCOJARXY0vLRCniX5mNXc100wK4EFgmwv1q+YeP82W/l tzbGF9VmdE8LbAJeF+E243G2F+Y1SfzpVP2IaT0I1SdRKF3RStXjmxiwvlvxDQDWD3WxGxWdrNr3 u4W485OpwJvAi8nOESjx4JSu3nMVDLJu1fOyhbdTnJpxcKMjDc6n++V2vzICMzW7O7LN6V5QAu8I /CLg8Mw6ODiN2zWmO/4BEFO3e9jB7yowTN2qtktMdp+TpH57hWYPWtOd387Ix86AVlw3rylmzVeB e0R5F2j1gLGqDNbsuFmKgT0Txljhf6Nue7l+t4pNx6nyK1TjRZt8Jj21mdK67n1G1g11CzxROWDt 5dOKujvvbKHOkAZWSFm4qKvGSJzx7A/8sbtR9a4Sh3NwY25D4YQolPfG+KmIw8MKzR1/L+AZuDCN W2VUfFEGHwL/L+DwF6qhIpP7flz52BlQgD3vePadcXPmnbXRix0A/AhQC/xPsvNyT7Y+RQCqLQp3 A8jVb7Y+UDHv24j8ACAc676xbjOgCIWbW5rTWX30OFvgEYXVyY4JHLYC9u3sHgoicK7C+hb4e/Zn uSMLIOzB9I6/F8gTOLc35pCKkfA+ASk9Ckf3xhwUXg041D/fZRrkSLBTGtDlsyYNqJkxZVb1jCm3 Lr1o8tnLLp06PJP7FMUjx6lyNSBvieEd6f4ObRhwvLosJhX5a+Wc+e+1HZvCNIPqseCS4RtKM04L BGBLsUdr3jZ/7IHdulmW2QM2C9wXcDgS6eBHS8Ya2CeR+vOPsQHGONsMhc9ZGB9w+Hx1EeQ+I+Hj bAg4POJt6PGdiEmRk6kwuqfH35XY6YJIS2ZMOcL3uVOECQKIZy6xMbu+esaU+ar6L/G8/44re2a5 XE2gQ3PZpVOH+3F/lmC/LUj+JuBW42Vlf3i69V0ypNJoDDeIfOTUL402Ha2YKgGW7ZGPdvPx5IeE zYNCDGmIoSpTgF91747ZJQZ3heBSSZJor/DlWvhRqjzGOJyJWxHO7dGJfjQnqYeLCHAvKIyJujSt h3tjPikIyvmVfr3wndUU/smOqU6fdHYaA6qz94ssq+v/fat6pYjk+cAqhHKUsMgg4EQRORG1rcvq qtZWz+RtUVlmhQ89dKtV6SdoGTBOY/YgI6YfwDqEn3oh3s9CfGBvVT7TtvpE5467bf62NAydNSlc Y81sEczWYo/asXndHg9g/RCPIQ0xBD1UzzjDa5/E39eMgsUN8LTCpzseExihcBIJF0dHEmkupwHv jYD5PT1XgNWwN3CMQr1AacfjifSdCxUeEYIf0D1NUP6mwOYxLp7Z0wwJOmB6aaewq7BTGNBll04d XlNr7xWRTxuBDxDmGI/5YhgJfEoth6tlnFoKIAJSLlBOImlQt+l0fGQkW4DnxDDXhAL3Q+kQAWao 3/b4bWhqMT+mXUpJjYamCxyMwOJ9C7AZrD7DrbpD+tO6Ydv8oIPfH/D+OGBJZq8g+wjYVXCXl8SA Jo5foDA3WeqNhaMFxli4sreSqC1cAOThEryvA3ZLctqRtS6xvdPE8Z5gBZQQnP70Yi/9rQ4I+H2r H+wf/UTS5wZ02cVT97FxvVdE9gV4WQw3G481CWO4ElgphgfEMARld1X2UmU0ynCUInXfiBaBjQj1 wGIxvCRCHZK1T9uX1LJXIvIu6FUT7563LY+teubkClG5BuCD4SGiI9MuB6akrpX9Xt7KmrIItWMj fDA87EpDBzq1plCcPGvlMHYiAwqQB/+JwQpJ7hs7fKUrMVyQ5NjZCo0ePNDDUwSgGooVzhJYGod/ hWEC8MMkp+aFXDDp270xr44Y+AIBJbMCf+zp8euhUOH4gMMvV8Cinp7DrkSfGtDqi6ZMVWMfFmRw HHhAPO4xXlIHkOJWph+I8EK7PHfBrUItH5VkZpuJKGfYeGIe+tgmE79327zOOMOrYdXNQInvCQsP LETTDFaJVfZ4q4lIs1KxrIWKZS009TPUjs4jOjpCc5Gh30YfjDkY+HM2X1t3GQ5bonAvSapeBCQM F+P8jttogOE+fEHhnyWwqjfm2Q++YmGIhetGQ3MD/MmHb0kSY6VwbgP8MJ3Kn2ywEsZ68P2Aw/9X Av/qyfEVTBR+IkmqoYAWA9/uS9fGzkifReFrZk79DIZ/gAxuBn5tQswNMJ5BKO7dbCvF7AnjORTl Sj+O82hq1DOhi9oLeywvXnUmcDLAsr3y2Dgo/WfSyOWtFK/3UVBV3lfQgi2W8e82UfXYRgq2uM+s xW7MxmvKNhbmakAZpMAXox18aj6cAYRC8Pve2JIqeL4z5OvVGXtKYLnC4wGXDI07/2yvsAgi9TAt BP9H8jzLV8NwXk/myTbA6Kgrlb0syeFmC5eUwMs9Nf6uSp+sQJfOqPo8qveJMGAz8HMT5pUspBhl mwjwXetTiqKqVkVmjbv16W2lbDUzplRa0V8JIpsGhVgyoSDtMcKtyh5vuyIbA8/YZnuSn8dBnpiz BU4xlmLc+Gus2ns7uV2fUAHVUXiKJEIjCkMMfBH4beLfXtRtpZfHs1Q62RlRqAL2VfjzSIi2/V7g 9wonJxHxQGC6wh96wMBX1MPsOhiYKCUtV9hLYSQ7ZjO0KPyuCL4/MCG6kQ0Uzq2F48R5vwYJjLew e8Bq/G0PLi1Now7+k0SvG9DqS6q+iHIPkL8O4RoTYvFOaDzDwLesz/5tFUci14yfM29bsnf1FZOL tYm/CDI4FhEWTCrCeum/jj3faiS/0YLSomqufqt15NZT5t77NPD04ouPvDSk/lG+kXy8+H/3uPXF bkmu9TC3E6DU5LvI9lyB2Co4LAQTFX7WHe3JrqIgUZgBYDuIkZTBY1HnU94jyaWHROEw4KVsziex Pb5Ktv9dR2Lq/LN/KofabI6f4PQubD3/C/yszNXm57btAfSqAa2+eOr5WP2NCPlrEa41IZbuhMYz BFxkfY7alrLEA/Hyjb9sO77ojP0i0iS/Aw5WgYUHFrJpYJc0h7djyJoYo2rczleFv4rYE/ctXnlr zYyqqAg/3G3OM68BjwIsmjFlcPUlVV8U5BBRfa8lkv+3vW56IiPx4p7AwlPGCViMS3L4gHqXMP+C cbmfYnshIAKwGsYAx+ECINtpWwrYKPweuL7jdQmhlAvIsgFVeMe4UtI9rFvh7pBXqRBSaK3oGeMJ MBP3um4BJgfMs8w6icGc8UxBVnygCrJkRtW+S2dOOfm9Sw7bIb8O4N3Ljh6E2J+LULgG4Wpv5zWe l1ifL6iPAFb1X/2at35tr6vfbAX3WvMGDLgK5FSAFePzWblb+jmfxlcmvtqI8UFV60VtE/BdETkQ keOt8p9ll0yZWDOj6ss1M6b+NQJLUHkQ5TuKzI20Nt+3YNak9MP9PURiNfmHZMcEjMIFK2CggZMV nhkJy3pjXgrniqveuT3ZdtyHezU4WHTKMsioCi4FjSWwoATuF7gj2QniSlyvaYB9sjx22/2ry2BB orY+6UNYYE/jyqB3vi/pTkS3DaiCLJ855Qbj3pCHwzZvydIZU86ZPXv7e0daYyWIDFPgIeNlJbE9 2/QHvm/jnJAwngr/6efFv9zWFXP2bMyyGVXftKrXAqwpi/Dugen7PQH2erOJ/ht8VNUier1ivgyw SAwtgIgMt5Y3ELkf0VMRhvggDYm/m6oc388PnZCFl5014imMkcBpYRc8KrG91Kq5Fgqsy0Vd5QXU 2lc4BfigOvxBeXB6T8xNnFrRVQTI9AkUW7h9RQ+WlpbAIh+u1WA/7yXRXqq/31XptgFdfknVZ61y uYgYdXlF/Qzc9ZXaKb+p/c6UbdbFqlcr6EoBpts437J+55r/vchuKNfbGJO3qSzpI741Xym99cU2 WTD5am3VLIVfiIjZMCTE658qwqZoDhfE8IYYY5Y4wR0R7heVQ0UY0ALcaDzmGg91x4wPVCP8yXh8 3YSZ7oVZIULifz9fdMZ+O01p3Sh4X+GxgMNF6tpe1MWDz8k2JwmUCdRbmBmFb3f8qXepTKnexItm 91C2Sik0qkvxCiqdnOzB13ti7DZaYI4EBIgSO4fbVnWj19LHnW59MBbMmhS2yjVt5YsvfLqYzQM9 EMIIM5s36XPLZlYdBLDHHc9sVmW6otUh4Fj1ucuP8TXrB9eN9QJh4AtqucmPMV4VVaxauTN/g5y+ xx3PbAa3yq6+uOpSFX4lIqEtAzz+N6VfRqLJeU2WfV/emlCa12pEH1PkSwD/FLcyf0Q8HhJnSC/0 wszywvxJPJaK0ATMlW0GdvfIgOJzsvn36CaqLtqe1G8mzoj+bSz0eDqWghjn6wM4FOfnTPojbmWc FIE9z3WK+T1CGTxjYU6K8X9Q20NbeYBKaIk5LdSk+qUCexj4SZa1Uj82dMuAFtu8z6McBrB073zW DQvx3LRiVlXmoQIicqAq86tnTPlJw/kHFVXePv+JWCT/AIVfgm7uh/JV9Znrx/im9dlbNf2Wfhki wH6q3GDjzLJxCgHQdQgXVt7x7MUV981rAnj4jDO8mplVV4rhRhBv6wCPl4/sT3NB+n86Udj/5a0U bLWoEkPlm6i5QoRwPcJ9xgWi4sAdxuNe8ViB7JD895IY3khI8ylyzXuXH9GXz6DtqICnFKqTHVMn ktErwaM6OERdFP3fBo7q7Af4edC9JBHF7wkEtBl+oLAw4HiRwB21kJmvqAuMdtVF16Q45cI6OLan xt+VydiALpg1KaxqrxIRs6XYUDfa7STjYeGNQ4tYcEQ/WvMNiBSI8P0teYUv1syY8tk9f/3E1so5 874dMuZQ0PtQbSlE+bz6/MrGuM3GOFt9dlftkRQBAxygyo9tnOtsjH3UOn+n8rRVJlfOmff7tnOr r9grb9/ilb8WmA3ibR7o8dKR/WksyuzPtvs7TQyPuhx8gesQDgP2s8DvjNdllYg48KdE0YHAyFCz CWpg1usI+JLI+Uxy7LVSp2bfG/O4EAgZuLEEnunsB7iRgFWYwmdXuk6XPUIlbDIu0T8oUf5TPb2V 3wS323bN7tojEDZwW7XTEs/RjowNaL9Y+HiEQwGW7lOwQw5k3agIz36umOiYbavRiYr+u2bmlEeq L5q896hbn12825z5Z6rxJqjyS1XqPdDdVDnb+txqY/zZj3G19TlJLXupUkwGTadx2cK7qXK6+vzW j3GdjTFJLSFAYRXoheM2jZw2/vb52+p8V0w/ooSmoY+IyNdBvHXDQrxwTObGs3xlK+PfdWmPFp4I hfQpSdRbzxPDvDTFnt9GeK7tGpGZiy6eutPoNIZcMGmH6K7C3b2RFrMWSsUp3b8zIsAodCShxJ60 Ll+gn4GzsznHjpTCfHVpRcnGFwvX1nVBpDpT9nJCITMJTtgfVwC/yG3ltyejRd782dNCUtvyPQHZ PDBE3ejkaTzNBYbXPlXEiDER9l7QSL+NvgFOVCPTls2oui/kmV9W3vrMe8C3F31j2o/Cra2fVbWn ishRBoYNQzlKfY5KxAibgdUI9SKsQVgjwnpc2HdrYqvr8VFXzXKU0apUqjIM7fi0WGatvb3Jb/7d vne9ut2HZuklVYfFLfcKMg6B+lERFhxWhB/K7LMz8MM4E1/ZilhQ1bcjcFnM51GByFqEOSaUUbnL H8XjCLVEYGBY/O/Roea8rxgODVH4B9v7Fje1wl97Y/yYE3MeaOHadCqJLNwlcL4kWVgInLMGbhwe kPaTDVrhxxE4VpL4PBP+4zuq4aiudA/1waSbmTwaFtXBD4CbAgJrF9S5vOTeCgLu9GRkQEvqGk8A 7yCA6gn5aCd2ZXVZmA+HFzOquoXx7zYRaaEA+FrM2q9Uz6z6i2+9X+5x0xOLcZ0n/7bqsqMHtcZb 90fNUaBTUTkYoTAfGJ0wikD6RXaqWzA8YS33DMjLf3x4h0R0nTUpvMz3vqWWaxApUIElEwtYOqGg 09cYREGj5ZDnthBuVVA2GeG8VuVHBqmMA7cZL1hxuBNqRfiPeJykPmDOe/+iyXPG3Plcj2+RtQtb uYQx+ookyhMFHuoseNRJNLxLJLaZl6oLaP0nnWvL4fWoa9u8Q/sUgbEx1yzvT125l0LadWljYWMt zBJXo58su+LwAric4MZz2/BgYJrDA1AGc6LudU7teEwgLHDLKjhspOtvnymmcSfthpEuaRvQ6itO zKNpw9UiyMbBHtGRXcuiiYeEZXvmUzs2j/ELmxhZ00K4lSLggpDYc6pnTPmPiNz+wQadN/Lm/67H 1Uk/rSArp0/Ls6Hm3X04SET2Bx0L7I7KEHW7+rCI5oF4Lq+SVlRaBBqt8I5BF4jy7JZ40wsdV5sA OhuztHbKpBrLTSIcLEBLgeHNw4pYXZZ5WCuv2XLYM5vJ32pBiRmRM+JwtBFOBXhUPJ7vZp+m+4zH VN9nkBD2PfmJzuakVGr93SHmWmEUGqhIGIhAcee18MJweAunLWkVfteFIVK1AR7clTkWwbcVhovz Z6b1bBKIR90qOaj/1NUWHjCdrAAVvPoAUWJxifmJNOMdqYBn6+FmTSKnJy4O+f1a+G8FvJL61SSX xEvcp3+KY/GoK719RWBAklPGG7hR4WupVvfvgTcg4EErUNSvj1unZIu0n/jvz5h6qo/ej8G8Nrlf lw1oR/IbLeMWN1OxrJVIy7YOlyqwRNXeZ4z5+9iyz7wrV18daAyqrzgxz7as7R8mvzAeiw3CmDzE tOK3btKwbhq/frf1qRTca78zpaBlkxyP6HRVPUpEQgANIyO8c1AhTYWZG7dwq3LYs5sZtDaOoj7W XGE9u8QoDwuS/7YYvmtCne/FusBXrM8F6jsjbfj82NvmPZmF227HAgiPcGWPZynEBc4qg/tTXVMP X1e4RWDBBjh8rxStItZAv7gLMCUTOQa4pRS+kepLW+dKNv8quKQKHz4zMlhxKWjOZyjcE3Rc4Udl 8KNO5rGfuLbPO0TO1QXZ9i5LoeuaUOt/RZyC/g5YWJIPRw1tJ4zSnvkQ2g0eEjgx4DXcUe78nYGv YSVc6gVs5RXUwIUlKdS0al2/qzckSbsXAANfLOn71indJi0DOhvMl2dMeVKEozYODjH/M8UZb23b iLRYKt5vZeySZgo3b2crW1V1kYGHfMPj8Q2bFux175vd7iWtZ5zh1QxYcQhqTsVtVUaLuL9Dc6Hh vf0LWDWme+04vLhy2LNbGLLaRdwtXO15+qDG5VmE0g8QLvdC1GfJH18E3GFjlKqi6KvLCj6YfOyN i7ptmxVMHUwQp9QzHZjGR1uvJuC3Bv5PYXkpvNfx+lUwyDix5R+WJennVA3D8mC0gVECs3DpREHE gLt9+JuBNXFYMjrR/rcWJhr4msIF0q7pmsKHAncqvGZgYbI5JuZZ5sEYhUqc0MeeKebRqvB7D+4v gXltv2yAvX23utxX3DZ7TNANFJYL/FJhoQcflMA7Hc+phSnGGf+kH0Z1ugO/AR4qh9pqKC6Cib5b fX9F4EsEb5Pb0sn+IbA+DG8N7ZCBUA15BfC4wJSAe7QA9wj8tTTxkFoBY8IugLe3wncIbt6HwkaB 2QIvKawpg8VB5+7MpPUNXjBrUrjYD72FyJ71oyO8cWgR8XD2gnLDGmKMXN7KsPoYkeYdFp6bLLws Vl9FWOirfc+EvXqJ2M3hTQWt6/K2+MvX72ZPBhi0zDRAeIMfzo/AYF9kVBi7v69yCDBV5KN+OCqw aZDH++PzqRsdyThQ1Ea4VTlkfpvxVF9Ffpznm9+1GP+/guzRBFxjwryRZR2AT6vlu22iz6pnVd4+ P3AV1VVWQH7Y5Sgm28q1Z0F5QHlmHUwPwz+HJ+k02QDH+wEKTp3RCr8Y6xoWUOsMZ8qupQqvVwS4 EerhDAtHpDO+wMYyV4rZdo9LbWrDmxQDi0vh5mTH6lwq1v6prleYWwH/i8IemlzLs1Ms/DKZNkEU dk/cM/DDKhAtg58mzv+WBu8gAjGwpQS+k07Ab2ch7W9xzYwptyGuwmNrsce7BxZ2y0+YjHCrMmx1 jJLaVoaujpPXmHwXr0qrCOuARtAYKj4CqoQSPtF+qgxuW2G2p6XQ0FARpm5UHuuGhbq9kgbn8zxk /ha3bVesiP60sbnx+sK8okcRjrY44ej/l6X+9O0JAbfYOLurRdFq33oHtlVS5ciRo2dIO4gUV/Nd g80X0XOKNvneIc9upn50hHcPKMyoOicZsYgQHRkhOjKC5yv9N/oMXhNn8IdxBqzzyW/0EbutxWqJ u+ojb037BnMibpUZiwibB3p8ODzM2pIwGwd7+BnodwZRtNly6LzN9NvoJ3xE8sMCE7uRvMI/IByt wP3G47EeMJ7gMrD/IB4/UYuHVIbF/wbwkx4ZLEeOHEA30kaWXTz1GCv2ZhGZANCaJ7y3XyErx+Vl ZTWXinCrpXCrUrjVJ69JCbdaQjHwrLo2H54QiwiteUJTkWFrkUdTkemxeQ1ZE+eg57eQ12RR1TjC 9/P7yy0tm/V3IKcr8G/xstabPggD/NjGOVwtCqvDEX//0Tc9n42mpDly5EhCt0xK9XmTizVPrhDh 2yJSAPBBSZh3MxQY3hUZVdPChNcaCcUVlEaBb7Zs2jg3XFx8l4icDa7S6LosRdw7Y3eUm/yYSyJU /da42+ff2AvD5sjxiaRb+8nKuc9tGn/H/B/4vhyG6rMKOrQhxuTHN7Hnm014/i7nE+4ynq9MfG0r +76ylVBcUdUP1PJ5L573x8iA4t+2Gc//9aLxBKhDWCvbfBnJ1OFz5MiRJbLikNvjt/Pe3q0i/9O4 3LLVXlwZ/24TUx7bxIhoOn02dw2KN/h86snNjFncgigo+oqNm6qicOx/8XDLXJBzAF4Vw0970XgW AdfaOOUJWT5Unu6loXPk+ESSda9gzYXHjMRrvU7hy20iy2vKwyzar5ASd+p9AAAgAElEQVTNA3bt bb3nK+MWNjPuvWZCMbe6tth7Whsjlw7u19Sy1Q/dIyInA7wshp+bUM8VTncgD/ihjXOI838q8Kv6 pXnfrXriiZ50u+bI8YmmWwZUFameOeUQMRyB+kspWPdE5Y2LWlSRZZcccayquQmRPQTE94TomAjV e+WzpXjXM6QjorE2QRT3C+UDxb9sXMXn739v1eMjw2IfFJFDFJgnHtcbr9dWngXA92ycSdvU9OXO tzZWXHJKiiqsHDlydJ/uBZEunnw+Ine2lUACz2HNlePueOZFgPpZkwq3avgirH5XRIYD+J5QPybC svF5bBzcJ23p02LImjjjFzYxtD7Wtl33RflrWPTqUXOeW758RtW+Fh5GZJziVOXv7EXjmQ98x8ap ShhPVP+ihYPOq7zx0d6aQo4cn1gyNqArpk/Lj4VaFoowtpFE8TGgaLMgf7F+/Kfj73xhGcDKSw4r jdm8y4AZiBMYsAbWDQ+zYnweDeXhjHoL9STDVsfYbWEzQ1fHMNtsk76nar719uaKx065916/Zubk L6iaP4owwAJ/MB73i9erfWCvsj7H6LaF5kObTOzsAz7q4/SJox4KS+ET+/p3JT4O71XGVmvxJVMm hpS3AK41IQYAZ6nP8G1Sc9qCMIe4/+txv31hFcCy86cOJ89epsK5IGVt92rNN0RHhakbnceGwd4O 4sy9RV6zpXRVK2OWttB/w7ae8IrqclRuoGjg3MobH21ZMGtSYX/r/ViQy0BCWxF+bTye6aEk+VT8 fJvfU1fENm7aPRt6AW0kRCm+BQzN5HqFn1WkqYjUHRRMFOYLzCqDBd25VwOM9eGSDOawoALubfv3 ahgRT6Ks1BHj/NbXlcIHifuEGuBK20UVKg/eLIE/pztfgAY4yIevdvV8C7ePdLX4GbMKdvPg76Vw sLja/IxQMPVwufJReXYQMfjzmE46IiTKVy/s5FZNpfBTAy0Z76GNZSoCLQhviWEL8IIYvqw+x1mf IpE84HINeefVzJzyx7iN377bHc8uBq5eMf3gG/xwwWkKX1OVgyPN1oxZ0sKYpS009vNYWxJidXmE 9UNCtOb1rDGNNFuGrYlTtqKVIQ0xwrHtUq8WYbnFx7u3rSyy+uKpB4ivcxAOB5c2dL0J8W4f9bh/ WQyHqEWQUhv2ikiheJQu88COhvlhJ+Z7CPBNUnyhFVYr/MqDBXFAnOBIrxF1zeMOSXwButXHKAYb PGckLgEmpDpXncr+jQpP0UEhaR1sHQhPWFerf6XsqNO5XOFO4A22X41ZYJ5CkQeTLFyW5Nr2Jzds hH8NyECn08LlkqKxHhBXuNfA3+Nujt1+KHowXWGfBicgk5ZiVgcUp3x1iLi6/bFBJ4bhuPVw+KDU urQfKjwpsB8wU2BUu4HeF7hP4SVJtF/J+FtfM6PqHkTOqBZhhglvpwJQhnKa9TnWqaUnBtetIA+r 6G2Vt85/RQTV2dNC1bUtBxrkq2BPVZGy9vJZ8bCwaZDH+qEh1g8NsWFwiKYC0y3PbTimDFwXZ9Da OENXxyleF9/OaKpq3AhPWpU5+cU8WXGday636BvT+kWam7+NyDcR+inugXGT8Vjfh10OxqDc6cfw APX9EyrvfP5fPTXWSjg+BI+QXKIsrvCZcvhvT43fGXWuZch5Ch96sFcJrO3uPWthsHHatKnaabxX Cnt3JoYRha8Af2n3q6cFTmtbdXYyj5MF/iapUw+/VgZ3d3av9qyGEb5rKpeqdfG9L8E5p6TQf02H 9TCgySlQVQAPlcKp2RASicJI3EMsUAXKwj3lcI50obVMHVQkZAkrBOosHF4Ote3PyfibXz2z6mVB Dn1cDNeb5AvZcpQvWcvR6m/TGHOan/qCwO/C4fA/EuLJTmZu4KrJWE4U4XOqVIrs2AKpNV/Y0t9j a7FHU6GhqcgQyxPiIcGKuP5L6lKOIq1KfqMlv9FSsNVSvNEnf6vF2A7vlWoLyBugDxov9ODYW59e ue11XnFinjZtPEVUfybiJMo2Ivw+Udfem/7OZOQDd/kxSlFQvWHc7fOv7Kmx2snT7SDIq06daEgq keWeZBWUGVgkCRFfC5dWOLm3blMPB1rnGigMOGWDgd07M9hR2AMnMh2x8JaBoxO9mDol8bdv+/IW JNPpBF4uhUnpGKOoa2Z3O+7eFcnOsXBme7dEd4nCucDcxD+bPNhnRBI1qEyodSvRp4JEoxWsBzNK AhofJpnrdcCVCteXO4m+7choC6+zp4WW1TXvDa6tRBB1CDcbjwcwHGct09Qy1Jm4IxSOaI3FG2pm THlUVP660l/zfOVt854Fnl10xn5XFRYXj4tbJmM4UpUDgUoRCUWalcHNcQavzTy90eVJ6kpgAcrj cbFP7XHb80tFPvrgrZg+Lb/FNJ5I04YrjXIA4mJJ88Xwe+MR3Ul6azUD74tQqgoiKaXPuksFbKwP 9let7yvjCRCCM9u3GvHgvEVwZyoR565SAgvq4SbgewGnDLROuGUGKYyXwDR1AjjrgDO7ajwBKmBD 1IkxvwqMo93Wsg2FQ1c6+bsu+X8TyvnnqOsK+g8N8PlK99p3dBwzVAcXtltGF8Rdw74fZuP+FfC/ OqfWf0yy4wLGwg1R+F9X/OSJBx3WrdKT3S99qmdOrhBMDRD5kQkxv4vBkyKgSi2fU5892rUtVlUr wiqQfxvh7xsk9sL+t77Y1PYk1VmTwitDZkisxUxUNft5xu5rVcYgjEF1qNvWiFFUBHeRiFhFrSBb gVrQlaryJsJ7orwciufVjr7rieb289PZmCUNVaNCvpyOcoHCGBFEgSViuFsMC3aCVWdHzrWWMzUO aFQLBu3WkylMdfCBJGlXobC8PAMtyGyQMARLaef/UlAPjmwvetwdPoD+rW47F+QPbbFwbEXAeFEY oq7fUgVwWjk8lO4c6mATrs3NIpNkNQSuF1VF50EQAFbDxDi8aVyfp/fVNZTbAYXjytPsLxVEHRwO vNB+Ba1QVwZjuxNM6jDG4+LEv1OxMA8mDSF1N/FVMM2DxxW+lOw9y2gFKpbxatz2enUaNngr8JgY /k8Mlaoco5Yj1DJCMAKjgZlWmdlfQxuWz6x6pgbzpFpeWNkSWT761icacKK8T7TdT0HeOf+gwmIv v39Mw0U2X8Mm5puQhHz1pKnRk817f1C6KVVbj/nTpoXKxzaPxeNzNXVysqd8CiFCwnq/J4a/icfz Ij2qpNQd3k88NVRloL9pfSnwfh9PqVdpgOPpEDwQkEQUPSsGdChsroNLxQU8kvmA8wRuroVPVXQI nilIFG4QGJXYCnarlUUE7oo71fsd+ukY+GIDXN0V/691W2n1Ya6XuhtA1lC4pGMUQ6C8Hk4CHszi ULW4lX6Q73rvVrhV4bxUOyfppP9VRgbUIiMMSDOwLoM1rAJLRVgqHn/AY29VqtRyMJYSVQQZqHAS 6EkYNGaa11bPmPKuoK8q8gZil+FHathSum7i3fe6rsZdGXf2bFOz8qkhxsR3x7CPWg5Vmg+1QqUg +W0yoi3AK2L4p3i8LZKdx2IPUi+CD3hCoeRRwSfIgCaM04xkH0OBEz6AsqDeQelSDv+Nwh+AryU7 Lm77fBkdumbWw2m4rfKTBn5ENwMmw6Em6oJ1n01yeLDvWtXcmeoe9VCo8GWBhU3wUlEvGNC1UNoK Jyc7pnCRuiBZVhSIFDYLnKvwjAQ0t7NwRhSep5O/VSoyTGPSChC2IjR10xfYDLwuwuviEcFjrCqH YDlAlUq1FIIIMhxhOMhRAqgaKyYWWzZgZWvNzKr3UVmrwiZBG1VZL0KrKCGrFCMUC1KE6LCausdG i6FIkTCKcRrMsm0e74nhOTHME8N6dp3+AutwRt4DjM8Y4Lm+nVHvEYWJAkcGHC5odj3if5qt8Qx8 z3e920cGnPL9KPy9rcdPHeyrcAduRXRethLHfbjDS25AAb62AO4+IMWW2LpryxRuqYSW+mxMqhNa 3WqvKNkxgclRmIgLsmWFMljQAJf6MDdZ0E3AKPwyCi+XuTSytMnIgBoxYwG2dra+TZNWYLEIi/G4 JxFGq1Rldyx7qjIWZYgq+YIBycNpaEz8SIxeaItpqcD28a2EqUw84rYg1IuwGOFNEd4W03WP/k7G FqAZIR/FoH3ih+wrxK0GA7sAGjjbwo0mSzmpJbCm1uVz3kOSrXzCQNyicPwm6LfVnZcncGZphxSY 7pBwJdTgAkodObjE5cQ+n+zaxKr9XKCpIIvR9VS8DUUC52viq5nklDx1D7tvZHPcEvhj1PW7mp7s uEA/hXuWwxFjU+eHJiUtA1o9c3IFKjNATwNhHT3rF9wMLBBhAd62/h39gOGqlKKUqDIUKEYpBgpR wrgX5eMyXZsQNgMbED7EZQ1EEVaL+/3OFhDKhBagSWCggmKCUm0+dtTCYIXTBapxDeaO7niOQmWD Cyg8mq1xX4EHD3PjnpDsuMK0ejjTwmfEtff9VinMz9b4ABXQVOe6Yu4Q+BEQCxcQYEBXuwj+UcAT Q6Aum/MKYjB8RmG3RCL6SclWogJfWQU/GpnFqD9AI3yrEA4ioPGgwIQI3KSu131aJqFTA/rwGWd4 +w+qO0B9vVhVvyricuFiwLJeTuVpxXmF14nwHjs+x5LNZlfZhncHS7t9oST393xM+Yq4MtOfx+D9 cBIDmviUXKzwr3S/HEGcAv778PUIVJGkOiiRinynQEjgvhq4JRvjdsSDP/pwhbh1RUdOWwXfTGaM LJyWWHl1KReyuyRKbGcKxELwg5h7T07veJ7AiJDz3/4+m+NXwqYGONOHeRJclnx2FF4iTX9oyvwj PeMMb9/+K2+zvv8iol8TobAZeEoM3/TC3G52Llk6TfLzSaG17fGh2r2m9rsICsbADIUNcfhLgdvS vh9w+jH1rud71hgDKyxcS8DHTCAssMaHr1fRMxu1ElcGmrQMUqDQwDkdf6/O7XA2sExdhVWPsxr2 Bo5UeGyYS5j/vQY8zKx72GV9ZVbiiiwuCRpXwAjcsLKT9tgdSWlAlxWvrEKYLiKhTQgPGI8LvQi/ MCEWIZ8oA7Wzs+29MH2gaNIHRGGqupzMh0ZB/XDYosH+vIgGRM67gw93acA2GUBhiHF5jz1GCH6n wWuF8xewfTXfKjgM2EfhLx3TrXoK3xUYGA/uENBN8Jy4Us5kHFTndBeyTik8aFzVVRD9PfhTdUDU Phkpv2xizH4iYjYiXOCFuUs8onyyVna7Gmq1cMX0afl9PY+eRF188BIgbtt9ISzM1eAo97kNARHg TBntkjdmEZBGJ85FdtOKFCIg3eUFlzReHXB4whCY0v4XngvUNBsX3OpxamGwwFcF3tmS0EnYC1ol YJsuICYDFayukIgfX0kKf7TAhAK4WZPn+u5AagOKvqug/VAGa85s7syE2h5rIqfGQi2v1syoumLV xUeWpb5q12Qt7KYuDeelClfdA0BCYi2pmInAsER+ZFYphzcFfhV0XGD3MFyV7XHbOAV8C78LGNt4 LvIt4OrpgS8oPFeSSLPqaTzn6xyk8PvK7ZN27tPg/O0T1nZBni4TSqExsRtZHXSOwFkNcF5X7pfS gIZ8sxDVZg8YmVt37tQ8Jtvq80WECYj8skXswppLpsytmTElq/6/viaWyCcUmJMk8fqOgMsEl6zd Ey6OX1hYkuL4ZfVp+tbS5F4lefstgRPWQRmAcRVbQ4xTrerxL3S1S02ajhNb2c69klCg+mvApYNa nXJVj1AOS63znwdVIHkWflXnJO1SkvLDVLG5fLWIbAAYm1uB7tQ8KobzvTDXmBAviqEFEGEAyrkW nl4+o2pEX88xGyx26cHnKtQ1wt87Hl8G/0eAso/AoXVwcLbnFIMxBoanOCXPhzk2Rb5qdyiHqDiZ wWT0b3VCK0bcqmqtH3xuVsl3gaOJCn9JJtnnwZ0pgjoXVPfQ3wugHB4RuD7ouEB/gXtMJ+6X1Fv4 e+/1VfVdgFG5FehOTxx4SQzXmhAzvDB/EY84YIQKX+XTfT2/bNAPviBQLnBXZZI6jkTEe27A5WGT 5WDSehjgudVVHimi2gKHru6myHOKe6txPsWkKyoLF9TCXsCnBO7vjeCROl/mRe7/Jt8V1MPrAq8F 3GLvIpjaU/MT0ISCVqpMhH2A2anu0/l2RngPYFQ79aQcOzcKrExkTXyUPyM7ZXqTgqmDL3ZldZbw 5c0EGg08WA+FyX5i8LcUwaTToknUpDJhPoSanObofsA1AqcprEp2biI39NraLKdTtVHvsgHeDTg8 LhF9DmmagsuZssaJuxwn8EIeLE/2PpVAOEXmBOq0SnuMCmgyToA7lVbCPqnu0akBNZi3AYajfKxD ux9DRqJEaBNq0qC0kT6l1vkGb6ULn8XVTiz3UIV8Cy8o1CX7CbmE6KCP60BJksSdCbvBTIUzgQdL 4abENvXyFGlFgwzcNLsH/LAHQEzgrmTHElXNVQovLws2slkl5iT1IsDBrbAy6L0StwpMisLx7zuV th6jBFYY5xLKSDOo0zcy7tuF4D6Npblt/C5FpSoGEFinXiwrit/ZRuAUgfVdqVXXRJK1wPMK/1N4 NdkP8D/gxSD/mrp+PN0yYqtgMnCdwCJ1alA+QBn8XZL4ZtuN/fnz4EvdGTsIP3VkG+CPPZXU357F 0N+4ZP11Cs8FvU+Jn5c1ICNAIBzugfzdjpTAk8DPM7m20115oZGFzQkBgLGqLO2j5mk50md8IvCn SsP437z4Ibf28YQ6oBCOwim2C3JztVCuri/QG6VwlHSifq8QqneK4ztswRQmRJ2CU0b9mxLtQ+4B mhROb995VMCugCvCrsxzWMdrE1v5Xy6DZ3aDNZmMH0QFrKuDB3C5ntuhrk9UoGHPJkXwJYUSgWvL u6CEtRr2jcMbyURGBM5aA9cPD8gyyAYCWg0/S9TLH5fOtZ0+hdd6sc0oywFG51aguwwGGLft/dLX ZCcsHGtwhrDSdEHQQtxWeaCF2zsznonzA4NJ4v48F6U9YWAF5Bt335EKXy9P0iZ3tCsp/UHQVl5g ZAR+2hMli8BvA1be/8hGk73OUFf/Px1ozAsO5m3HCCdh91LA4TFx+FzWJhhAJbTE3c5kRTrXdWpA 97/1xTiiywHG5FKZdhn6geuTBCDSrR7pPcF8CFnXc95TSClHWeuaqE1XWF8QnDu4AwJ/CgomCXyu IQP/WhiuFTgWuLsc7gs6r8b5IwN1WQ2cszpYxzRj1rjCgu0i2+oizn/I9ljJaHClq4cKPJqm0lNg iaXChT2Uv7sdo9zn8DzS6KPV6aQEFHXVHqNUd5JWajk6o0yV/iiqKNK1JmPdJK2Pxlg4C/g0gOlk C+85FfNxwCOd9bBpTyKoE9Qmor8foBEZRK1L7v4OsHyD0wQNXFFUQTzkShKDfLsRH+bUQkE6c+hs 1XoAxEyHYJLAwpGdy+l1+6utTkbvm+IeimnpjLY6ucGgB+nRtXBAGrfLJ8PXU+7Smr6XIhC4HV2y 6kZcre1glAGZzCpHrzOOxMNOtKUlFMqKyvcK98EMqhEe3FG4Iog6t3W/uc3nlSqNZAXk60fdMF9O a8KOP6X4MlzY1ZSmWpgqTurMWPj1hC5oVg53ghlBlVEI7Gngmq6M/6ETuPAEBnd2ru+an7X3r3a6 ldYUCePSxbrwhAjIiQAhF8zrMmNhY1DwLVGS+t2u3Ge+cyGUAUPTfTi1UQq3pAoEtqdLBlTELAD3 7Sjb+VxpOZLQFkASZPmEm/+bFYHaPCiV4PSgouGJFWUyFGQDDKxzdeGPSqJvd2J72RB0Xdht8/dO /DNtsWh1rRrWJTsmLshzZWf3qIPDDdwvCZUexeVGd4aAxp1aUqrI9+XRgBa87WlywY0CgX06cz1U uOj33xJz3aIusNTZXMcEHbMpjrWRMFY3txlbzcB4+e0aRibhC1GY1Nk9xruc3JE4EZMj050DgLhV /Ay60Ku+Swa01W+qQ3WLIecH3RUQYHzbg0719ZQnd5HlMMB36udJDWjii/NwFP4ThXvq4NY6uCXq fv4chWe2ury/n8n2AsBqkhjQNdCv3hm37/PRduyyBjioqyV+ie3uPpJahekb9XD6og4dLhVkOYyo cy0mngRK2o4ZmL26Cy2cFSIGPkXqFVy+wl/qXc/4Hc6b7/qoH2ng+sSKfYAP99RCZSfb+TvVZc/8 v7IUvkgFLwrHW/hM0DkGvl7rSjKTjlcPowTuby/dZ+H6NVCS7DUFzCNiXBuSIMIKf6p1fZN2mIeC txom+m6XEBFXunp7HRytGbQuKoE1Br4a5ENvo0t+ggWzJoX7++F3RRj/kHg7nZByju0pAB7wYxSi KFxeOWfeTZncZwGEh8OvgT2BvRJbo2wTj8Dgoa6DCwD1cISF+8S1nuhIDFil0LAMpibLa6yFicZ1 xhyhMCHFqrkNX2FJHE4fnWguVgcPJIJFSbe26tJqFgos2Qhf26tD4KEOrhKXTjSWrhmROPByEZww ANYnUrzuEDhYYW/pYAQS+Z6LBR4vC1B7qnMtnX+RrKd7LZxkXGBuJO69TWlk1KkYvS3Q4Lm2ye8C ROFq4NuQ1Lu3yQ3Fv8oC+thHXSXQ6bj3ulI6E3l3r/vJctcGmYfBO9y5SQ4DxtPhvVaXsbHIuL73 M8sCKsWCqINLgZuAU5P1he+yo7V6RtXDInLyq2L4rskVde7MjFfldusKK4yvVWPvnJ9Rl04FWQGj Ql30bWY4hiZk6LbRAEXxLsiZlUNNskBOYjtZnsF06trqxOthlJ+k73pHfIiPghUd59EAw+NpCPMC KNgKdy9fQVbDqHgnf3uFxpEBPuQoDCl1vsUdHjIbYOCW4PYWnbHt79SV15lqjvUw1E9TLzUEsZKP 0o1kOYwMd+G92gwrOz7oOkMhFHU+0YfK4Kkkc+kaIrIYoFyVPLLbjTNHdtkj8V1WtLnZyMJM75Mw CmnlxWWDErfKCBIJ7pTElzvj6wFKXZO6jClxQZyME+Wz8bcvI7jR7EDYgPvpFt19nYlMiR2UmtJA x3bzvUpF4uEzM+h415eSoi+iokNQucLG2ZpYvMZw7/RCEZ79ZHST2OkZ91EAackH1XldTvvJkSNH enTZgOZZea5ZqI3AyKN1x0KH/TG8ICazivwcWWVbAAldUPXEEz1e+5wjxyeVLi8ZK26fty4W12NU 9TZFn0dZqLBIE2WeY9QyNpfi1Of0AyoSDzhF3ujb2eTI8fEmrWjQXr+dvxTXRIvZszHfA1a+P604 Fmpe5okMOtZaluQi9H1Kueq2BDzP17SSmXPkyJEeGTstr74aK1djR9/1xAaL/A3g02pddnSOHiWE W2kW47qEDcMVOIxV5RBsWybzBs0zqfr05MiRo5tkJR8ppHKLRc/tJxr+vFoeyAWTepSz1ecE6xPC JRiaxH+3y0kTfWu3W+ZlVS4tR44c25MVSzd2c8UiQZ8GONH62W2+nWM7SlFOsT79ccmOEdxTsM14 KiiqNWLtFX02yRw5PiFkTVyp+pIpU8XyBEL4LuPxgOR8odlGgKttnCPVArpBkauM6AZUWiwSEyMf +uj68b95dvHOqP+ZI8fHjayVFL21YeRz+xWvfBrk2FOs5XHP61yuJkda7KfKER9F2G+rnDMvudJP lpTnZ4O5EEa0drGeuSMWbAFsHgJbUkm/paIBinzn6u0Rylx9/g5zW+X6F6W9mcoHVdjUvjQ1E+ZD aLd29ffp4EFLPWw4IMM+P22sgZJYmjYiDltGp0jQb4BhfgotAw9aekP4OVtkVd6z5uIjJ2H8eSCh B8TjrlxEPmtEgF/6cfbGAroilmcP2vPXzwdWmmSDeihUJ85QoTCB9A2KAnFxddSrBN608HQE/tnV Fg0N8FkLXweGqavJz+qHyoPhJUn6CNXBZYla+Ap1WqTpfFdiuDrw9xT+58FjJfBispLKIFbDCB/u VsgTOEA7r+dvjxVXsvi+wlsWng3Dv9M1TFH4I06Mo1MJPYV1Bt5WeKQcfht0Xi38QuBEcX/X7d5L gWaF+8udjuouQdb1kZfOnHK3gfNagQu9MLU5CeascIJaLrPu+6eqZ1XePv+e3hw/CkMU7paE3mNH 1DUGexXchyohUjFBkuttNgBXlcKfu9KeI3F/qYVjEn19+gWc9iY71lwXAaXqesnvIIdnoF8yA9p+ 3Hq4SOE3KQQ3/qFulT1QnUrT6I5jKSwBblT4c7p92RtgtO+a1SUVFVYnu/b/2zvzODmqavF/T1XP TCYzWScJTHam0z2ZsIRVGdb3eA+fgg+UTSQ+UQQ3+AECCgKiqKxPAVkSEESUTcSFp8h7iixZICwC xgQn6aYnCdlDJnsyyXTVPb8/qntSXdPd0z1bZkJ/P5/5fKaqbt26VX3q1L3nnnvOfIFy9QK+TAHG SOb73ZoKa3fzOIgXeu0NMKQNZuKlVMnFSoHDagtckqkgH0CjA39kj3L+SwVcUGQU+71OzyvQr5xU J5bztgjD5onFjVaoZIzrJiNQfuo6jPCmiF7faiePP+ze+X2+6GsNHK5eUOMOikThnnFe5Jp2Ukr3 88D3paPScxXufB2uOaNAJZpqw880S9I0AIHzauHJLG2z1sNkA+erF56uPfhFZwoU2iP+zMcLGNwB A5HxqbX3CtZKmGzB18XrOQfD5M234ILaAmOKplkJ51k5orwrPDLOS0UBtCu9f1X4b4FooOxWC77z HswsNENnqr55wCE5rr/ahmhnzzHIKvg/8cLoLU5CY76hf3+lx/2NIg+82CzofwM0quGYLMs+SxSO AF80xlOesFvFXL43lCdAEtZoEXFkxkLLOLhTvLiKwSg4NnBlYw5lmAvTSf6kbAiY/aC51otneiJe iLWCSSn4gsKgCZgJ0DwWvmngM8CuwPFGA/PWeFk7CyZURJtHwbax8AcLjlV4NXD9oQbuCsP9WkAE o3R9wBXkSBMN1DqeuaNgUhGzjgDaDHx1ICpP6KVETbpL71GI2/TxFz0AACAASURBVMBFxs053irR OUeqcrJ6HTSFB8Iz53UlrUWPUOX1MAruLaYZC8+SJUWCeDl0bllR3CRRt9LbjvXS5362kyjx2Sgq AJmAjodnBK7RwCSVeD3zZ1bAkYXW58IWLfLZ18IGA2drIFpRamj/pbVwhxaoA8bCC+oNuTsgIBZc Ore4CafPCoxSeHScF7d0QNIrCnTKz+dttUQvAxiPcrYp+p0rgWe8+7pxvICQytKkcmNXZ7P3NlaW oTV4ysSCcwqtxxQZzzEbD8OrAn/ubj2FsMMLivxmlkMjLXhsTRfSlBTDBG94fX22Ywa+tspLlFcQ AjcS6FGnUTihDk4opJ5UltUrgE27GLgyDb2YKtRF2oeZq6U0kVQsgtd7n+DZPY1Br2qYNSdrbp+B gIG3gj0xH//SW9dN2SRP8Kd1uM4biv6yt67pZwrsVrg9270L1KsX0b1X2Q+elCwTRwKWBbfFCgys XOtF68+aVjqVQuOGXGk/AmU/L3CggTvCRUaI72/0zhB+xgxbVK8BWIUwp7S0sygEOFUNp+wZuv9y yqy5BWUJ7K+M9WbesyrQfAnNuksCqgV+2hJIcpayDXbLHFAorZ4JI6sLkcJX13fR37NQBBwXcnlt jK+CLxdYj1pwO7nzBB2/Gk7JV8dqqBG4XmHFDvhJIdftz/SKZosNWX4CyokAf7Ds4nw2SgBwnBos QNFtGuL6gTzMgfbI3lnRXkwZghdrpUMP63VvQuyp3V2w6RbLFM9++mK2YwIjHS8nUK+i8KdcIwCB CwudUErlQnoix2ELuLaT9NZXAOMFbqjv5mKD/kCPK1AFscW6TERCHwB/LvU+i0aBX4mNCwgyRIye vrfb1F3e91Ii56LXhnGD4CPZ/DfPAHccXDgph02vpxHPDSjXsbOCTuU9jeO5WeUKLnPAOl9Gzc4Q +EEeb4zG/VIJ34KkMpleBry2M4dNfKDR49ptydePjSD6HwDPWaG+GSPtgywQ4R/pj4+Rq9Zc0tir kw29jeX5EGaVNwm42vTwdc/orbqLwYV/5DqmcNgHXk+515gMWwWW5TruwsmF1pXKF/VwtmMConBt MPW0eh4XNwEVLtwwZR9Jq9bjCtRWu1GQQQrMLk0edRkFHrdsDCDCAa1a9l97u03dQeCzOQ61Ar/q jWuuhWmaY+VUXzPYWy2Ui0GOt1S210iZgPK1oWCXKoAk3KawJce1Dq2CM/371sHxxtv37Hj4azHX 6s/0xhD+PVWMADcah8k6oE13e5V/ILyT6oUa5Zqmy6cPSJfaVXCq5HaXubXYXN2FsAYmGm+paEG2 vd5mO+zQ/JNWU/ugGetyHRAvp3rBTIblFjyY67gL3zOpXqhCmQu3CLgC3x7o9nw/Pa5A142veB24 C9SZoMptxuGgkhLtEgZ4WrxeKMrE8uTwrEvp+ivLYfgauES8JYjBIZ0K/LwWbu2p6xk4YiVcsAru MfAGcHhP1d1dKiApXoCRrCjs19ttyKfA1QvWUpQ+ULgbyOpaJzBlXWr9/Fo4S+AY4IFaL2bCPkOP hbNLc/x1zzuqXNX89ROagJk1omU3myS3W2XMKw3pi2I4cK5x01LtGGP6c4TA41fDnQrDgCqBiUBD atuPqufSdONaeLi2myHX/Ahc2V8lLDUDnnNds+QJ8dZTSJ7lkgL2ZhhCjmF5NsbCijVwn8J3stQn Ct9eAf+rcJPC+jLvY7lP9aZ6XIECeMF85zwU/8oJyyxbnxiMjL7OJHnQCvF7sfatJ9hLTED5nusw KfW0DPrwlFlziwpA0ZcIHAoc2okCWyNwZaiIcHbFoN7ExiI8e94p4n2DShSG7i5+eSvq+XJeQvbl uGHx3KcmA1eO8T6c+xS96mMUeWDOX43KJ0FXlQFfMQ4X7ulRlcjBIarcnlKequqo6s3bbefSfm47 erQNpip8O8+KoxoXNvWG8gSw4K/j4M5xMMOCRiDRG9fpCqkeWT5XpZzD+55C83xQ1AtkXFQ0JfAC xgB35DpueR/W2MY8MUIHMr2uyyKz5rzRZoWOUdW/2cA56nK1cTKXhZQAvBVIJ6rhJpNkNIpR3W0p F4Vnzb1+b0VgKhSFzZNhyVgvhNrLOYqVW3DPlgIC9HaXWlgs8AXNM2zuS3Z7zuU5k9bmczHqQXK6 wkmREar8GC9eaM44ngIPHtwF5TwQ6JPOYMO9L73vtJmPo/qCAP+mhhuNUxpf+bDwPi7fTn1cVHW9 IGfX3T/3kX7e88wgFSD5q+S2t03Z0YMTR/nYH17pq6AhnWF7duF8XhRNfdCM2jzHFna10vHeRFK+ HmafLFbYG/TZaHrqz15pcdT+tKr+EuBwNdxmktR2ohuOVGXMwNEfXaIMuNi4fCmVqhhYZsPJU2bN yRo+rL8zFmKpwBJZfziFC9YUGT+yK4g3YdUrPqbFYudf77/G9iLW9zY522DlWSlVIO93XmTfo0/N kfX3v7wtPP7jX1TVm0HdsCo/dh2mZnnPBPiEGn5gktzvOnxaTe9PU/YQQuGzc0OA7xqH09WzDavy N8uyTzxg1tycK1cGAmvhfnI4TAvYBmatKTAKUHewYS55ZvpXQuUqeH5pR2+BHsXAQXkOv9BbduE0 LV4U/gNyHG5T+N/evP6+Sp/P58h115nw+LnfMWpdjeruMSi3uEmO9vmKCnCmGi5NxcIcinKxcbjP TfIJNb0bQLEbVALHq3KTcbjOOJ1GCd4f5WaT5Oj2TJv6jKvWSQfc+9KA/5ofBkmFr5N7tUpdyr2l V2VwC2zQPMnUbC8q+rjJvazABI7Ltj8VJPmR3rw2QJuXJymrr6nCn/cf4GHl9hZ7ZUJcrsNMmTX7 DhXrLJTtQ4AbTJKPpxTJDONyUUp5qrJC0RcUdDLKFcbhQTfJBeoyrp8M7SegXKguD7pJbjBJPqKG 49XwY5NkSo5FBGGU/zYODappH8G7B22W8+rvf3nAR6hJk8oTlDPepcIF67ycOL1GFLYb+HxNjhBs 6oVyW1FocruukFoXntVkIfBWLczurWunUc+tK5uXmStw90Cys/cn9ppHkYBOmTn7WSPWKaqsLQe+ YRx+ZJKcr27K30OXuI6eEL5v7smCfAJ0DqrOfijnGZeH3SR3GodPqWFsH96M4E0jn6KGO4zDz9wk 5xqX/VFAXZQYSnKiKneZJCepyZDcj6rhx65DrSooSeCK8Mw5l41/Ys4+F/mv1kuLnHUiRyDkwv0r e3FWXkAnwN+yKch1XoCTz1BElsquUAmf1OzBQhwXrsoX6q8nSIWX+3yOw7+rhRd68/r7MnvdJTMy 8+W5AsejutAGDlX1lI3qbEs5sf7BuctE0PDM2X9esGXiSbbNv2J4DGWrDRyshkuMw0NuG3ebJF9U lwN74WMqeEPuj6nh+8bhYTfJFcbhkPa4nWwGHlbLOmmrnTxI4AuqbBkEXG0cvmJcKvDSE99gHKo9 H89NqnwxPHPOgA8sm4uUcriU3Ev+JlpeYIqCFhHl6EUVzUKocjz3m3KBpT1RZzaWwyALvpmj3T+e 4Nloe5X9vHijHda6Kyw38I1S77Pr9MpKpGIJz5rz3rtfO/7kCtWrEA4T5M2QM+i2SQ8+n+EKc8bj j7t4s4Xzmi89cYw65nTgHIXjypFBU1WZqi4fw/AFu6zH4mUdp4bz1WWsamBBtzoK8xV5XEzr78IP vOm3tT3RfPEJC43hN7YQPVNdjjKGCarpQMnr1eK0yH1z9lqSuGKxvQ9uVgVm8ii2sRBb7eXlmZmj yPlr4H/wIrfnpZPVRQV1CFI5eR4SOBbA5I9S1CltOe5dQdbC5caLSRo89kirlyW0IGwvIEfRH4+1 MMnAzVkOfaBw9vgeysMuMPTDqIX7hQIFOHDW3HXANwstX3f37PV40WAeXHzxR2tDWnGKqn7KEvlk DZ7r04oeSnt/uCoH7LFl7lBlkar5jdjJ30+57/Wcq13q7puzcMVlJx29O+k8jHL6JDTVIF1YZlnn TLp3dr9dmpmNbTDSzhFt3O4kLUUt3L8aPi3Z406WKdy3HP42qZPlfvl8KU0gB3oQBWs1HCVwF6kA wgquVZgTe85Z+nIYS8AM0ATla+BShR8Gep9JA3eMg+9IEXEADAyT3PFUs85XrvXyDv0Kr31+Flgw Y6wXXb5HUG+WPyvi5UfcJ+mvsRe6xNKvHb+fi6wWwbrZCvFiD0XDv804HKEGVX3RiF4YmTlvWTHD nqYZ08vLhg49R5DjDfquO8g8PvXOV1p6pHF9yEq4wIKHyC43y5Nw6KQ8AStWQUS8KElZe5EKf7bg jNrcEz7la+AtcrsEbQSusuC1XbBzkNfQYa5nf5yucJp4Szz9Ie527oa6A/KEevsAapPedbM6oiu8 YMGNCussGJaEIyzP5nh0QHm+IXB9LTyf61q5WOMlpsvVwdiucKUL8ywvudsk4JPADMlc/bTFwMxK uLWmB5eOKpSthhckR657hb+8Dqec0QfpU/qafUqB6owZdmLo+4tEZOrvxGam1f0sCRXAQ67n8C/w 47qZc67qfksHBr8D+xg40sAY9dxwLs7Xm1BPyTxoQbPC4mxxPld59tC7ctkyFd4SeFjgkVrYuQZG CdQZmKxwkcC/F9D0JHuWcNrkH2mtrYWxwQ/iWpjUBuPL4QAD3wIO7uSaBnAUQr6eoquwUeAvLvxi PLxU6ITRe1BRAQdZnuvRqXj33lnuqKSCSOb97sKLhv9UEp7orIdfKGvhQMdbXTUe+ALwyTy/qQr8 j8AvBd53YPc4+Kf0k2W23aHfDOF7Ann8cTfxtRPeAabWY+iJNDPVKMNT75aKLOh2hQOIcVBu4Fxf SLpfF9Dt/qiBj7rwHFkU6FjPgb42X/xLhSMteBrYKXCgC+enDq1Q+Hnxd5IbC97PNppw4CQbjk91 mf6W+stLaki+VWGnBSsc+LuBRZO6sJSxCoYYuNi367FChjwCm9WLPbpeoSkEb+2Xp3fdFRRkFXxO 9vyGG4BH8rVPvb//TP2/4e+ee9uAV6D7VA8UIPG1469E5EfbgPPs8m5nBG1Q5W6TBFAR82/h++a9 1P1WlihRYl9gn+qBAmCbV9XYWgXyX8Zla45PhE3ur4fNnjHY+JR/jVHdPUitD1UPtESJEvnZ5xSo 7pB3ZZAuFZG6c9TtMQ83QV4aP2tOVl/GEiVKfDjZ54bwAMu/fuyhDvYPVfUoRHIZQh00hw1GcMBb VyrITuClpOz+4dT7Xl/TS00uUaLEAGSfVKBpbroJ69ocx7J5Fqe59lpfv1XaU8KWKFGiRIkSJUqU KFGiRIkSJUqUKFFi4NGpDbTq8rNe0TzJsEqUKFHiw4JVvvs/tt/+x/bJ5E7dmBSmiUgp/1uJEiU+ 9BhTlrGctnM/UCFBnkgrJUqUKPFhQVyrV4NflyhRokSJEiVKlChRokSJEiVKlChRokR/oieXcloN DQ3VlmWVt7a2uiLSmkgkio6D2EPI9OnTqxzHGbRt2zZ1XXfXqlWrdrIPL8kMh8ODXNcdXFlZaQO7 m5qadrAPRgAvAruhoaEKqNi9e7dTUVGxs6mpqafSZJUokunTp5dv27atqqKiImSMaZs4ceKO559/ fm9NyPSYbHRbgTY2NpatX7/+c5ZlXQBMTbk87QbWqeps4CfxeDxrGLiDDz64ZteuXXflqd4B1gCz Q6HQywXcpB0Oh8+2LOtCvLQPNXhK5AMR+RswMxaL/ZUsijQcDg+3LOue9LYxZmN5efm3/Nesr68/ 1hjzVd9pb8Tj8Xv89UQikS+TI7UBXsDdNcaYueXl5S/1xAsdDocPtW37G6lr7g9UqOomEVkCPNna 2vrwihUrsqbIiEaj/6mq5xR4qUXxePy2YtoWjUZPVtX2dLoi8lIsFns40P6plmVl5I43xvwpkUj8 yr+vvr7+cmPMEanN3ZZlXblkyZItwWseccQRVZs3b77Itu1z8TJRDgdaVXUNMMcYc08ikfh7lrb+ u6qeH9yfDxG5PRaLLfTV8Q1VPdxX5N54PN6eNDAcDp9nWdYnirzGVbFYbF2q/oNV9Vu+Y4tjsdhN /vLhcPhcy7JOTW8bY36bSCSe8bXxdlXNmpokx/VXx2Kxq331729Z1i3s8eDZHI/H/1+u88Ph8GTL sq4EPiYiY/EyGmwBlqnqb5PJ5Mxly5ZljXKWTTaAZ+Px+FP+HQHZ2GVZ1lXZZGP69OnV27dvv7BY 2chHt8LZhcPhQevXr3/Etu1zyFTGIaBOROqAs+vr6z+/ZMmS3wfPb2trqxKRzxVwqasdx3ktHA6f mUgkcqUksKPR6H3ARWQm3wrhpR0Yr6qnRiKRH8Tj8R8ET1bVSn9bLMtauXXr1mthT3JPVT3AX0ZV BwEZClREjgHy3pNt2+q67tyGhoYZTU1NK/OVzUckEjldRB4nkGZDRGqAY4BjKisrz2poaDitqamp Qw4c13UPtG27kOePqj4PFKVAVXVq4PdtBTIUqGVZY4IyYFlWFC8ifXsPWlVPFJFPpTZ3OI5zPd6L 2M6ECRNGbdu27Q+2bTcGmlIlIlOAKbZtfyYcDl+USCSeDJSJFiiL/vt7FFjo2/UvInKa7/izQLsC tSzriGKvYVnWjaQiyqtqbeD8OUCGArVt+3B88mdZVgxoV6CqerqI5E2+F2Ax0K5AbdseqqrniUg6 r9RaIKsCDYfDR9u2/Xs6JhwcDhwqIoeWl5efGw6HP5lIJJYFz88mG6oaBX5DHtlQ1Q6yceCBB45q bW3tqmzkpFtZ1yzLutq27c+QqTx3kjl0rFbVXzY0NIzvzqVE5BjLsp5ubGzMmhcmEolcDHyZzHtq VdV2BSgiZSLy3Wg0emqHCvoWAU5wHOdXDQ0NFZ2WzkIkEqkXkUfxKU9VTarqjkDREx3HuYMBFHlL RI6MRCJTijzNqqysvBcvaVw7qrpDVf1DxSrbth+KRCL13W5oiZykRnRPk6k8XVXdRuYI8EDbtn9B gbpIRI6MRqPhIptjJZPJ++gF2eiyAp0wYcIoEbk0sz16s6pOAz5OZr7pasdxLiig2s3A91X1O67r /gTISBksIsds3Lixw/C4tra2WkS+wR4locCtrutOE5FDVPUxX3FbVa+mJxImFcYfVPU7qnozMN9/ QESOcV33P7tY7+X4ltiq6jxjzEdCodBUVf2Kqrb5rvPZ+vr6QhTSRqApx9/7XWxnV7BE5IxiTqiv rw+r6qd8u1qBi0Kh0FTXdY8G3vEdG2yMyZBHEdmE735VNSNNMZ45aYm/jOu6wY9VZ6wj85kuCxzf FTje5P8de4hEoP4N/oOpbf/xnGm782Hb9hdFxN9pWqyqJzmOMxU4W1X9WWlPCIfDJxZYdVdl43Tf rs5k44uF1t3lIXxlZeXHgJHpbVV9ZdSoUd+bP39+ElgeiUSuFZFfpI+LyL8C3++k2i1tbW23Llu2 rBVg8uTJ3y8vL38FmJo6bhljjgNe9J80bNiwo4wxk31teXPUqFE3pNpCQ0PDxa7rnsSe/Ngfraur m9jc3Ly0K/deDKr6XDwefwA8Q3pra+uTQFoAJPXS/6aYOidMmDAYOMV3jTZjzEWJRCKdZ/6n0Wi0 ES9bIsBgx3FOxcuHnhPXdR8bM2ZM1qyj8+fP79MJOFU9C7iliPInikiFb/uZeDz+M7yP6cpoNHo1 8Jf0cdu2P+o/f8mSJU81Nja2/w5btmwZ4ziO37yyvrq6urGiomJ7esf8+fOLmgSJx+M/bmxsvDO9 3dLScjTeMDzN4pqamo/4zyn2Gp0xefLk07Zv394+GtmwYcP3gWt8RR6sqan5bnqjurpa4/Hgt6Qg zvb9b0Tkylgslr7X30aj0Si+sLyWZZ0NFJRvzBhzNnBroQ0xxvxLQDZ+H4/HH0ptZpONowutuzs2 0OAX4+m0wgIIhULPuK6rpHqFqlqH1+MtOBPfsmXLNtbX1/9CVf0v0uhgOdd1jxPZM0I1xvyfvy1N TU1bI5HIHBE5F0BEym3b/gjQ6wrUz4IFC9rC4fA9tm23f0FF5KAZM2bYjz/+eMEz5uXl5ZNEZKJv 1+K6urr3Eok9nQUR+aOqfiG9bVnWcXSiQC3LMv7ntpc5JBwONyQSiaZCCqfs0/5d/8Q3VBSRN1Qz vgFBu5yZP39+u2zW19d3eA6u6ya7+Xzc+fPnt//O4XDYse2MgZD29vMPznxHIpGM91FE3O62oaGh YajjOIekfw9V3bZjx47ZgWJ/An7InlHwcUVc4uBwODzV12HojMn+DRH5p3/bdd03A79DUDZy0uUh vKoe6N+0LOtt//GmpqatqvoEngH7GRF5MRwOl1M8GSlZRSRbTyjDKG5Z1j+zlAnu2ys2MMuygkp7 +GuvvdZZvu9gHcFJgFjwxXAcJ0PxiEiYvjNbdJn0kFVEQrZtn9JZ+TQikvEMjTET/NtLlizZBpyQ /it2MqdE4biuO8nf4wOWr1q1KsPcYdv2ElVt/5iIyNjp06dX56vXJxtlQMHzGL4Jr3T7MmQjkUhs pYuy0Z0e6KT0P6ra1tbW1mF2PB6Pd1tIHcfZz/91UNUOtriArQW8mcEgGftEZFx329ZFBvk3VDVZ XV1dVH7sLPfbIe+3MWaLbdutQGVq137hcLgskUj0a99QEXkJOBmwVPVM4E4KGLW4rrvaLye2bZ8d Dod/nkgkXkvtMrFYbG5vtLlEB/YnU7d0kM+mpqbdkUhkM3tGlJU7d+6sAbYHy6bxy4ZlWQXLBrDa v2Hb9jmRSOTnPhezLstGlxWoiIz0/Z8sLy/f1tW6cnHEEUdUbd269bPpbVVN2rYdtJOIqlYFhvAd XHaMMdsCinivxDgVkX8PbK9csGBBUUMm13WHBIYcHXzeBg0alHRddxcpBaqqg9va2jobcQypr6+f mO2A4zjr+2JhhKq+jecCFwEOj0QikXg8vqSz8yzLmo83ZE8Lwgjbtl+MRqM/xfP/jfVeq0v4ySKf Hd7HFNtIKVBVDRHoXATxy4aIHBaNRqcU8ru6rjvftu0M2RCRF6PR6IN0Uza6NISvr68fpqrtT0hV 3VRvp1uoalV5efmZkUjknGg0esnWrVtfEpFDfEX+Z/Hixe8EThM8vzJ/PR0c1C3LymhfX8c4bWxs LItEIv8BfNe/X1VfpMgVUrZtB9ve4X53797tqGq7YhaRIcOGDcs7hBeR81V1cbY/27ZzLQ7oaVqB Z1PtqQAK8lIYPHjwO6r6amB3JXAZ8HYkEnmsrq7u8Cynluhhsshnrg9v+zspImW2bVflKOcv/6fU /4MoUDaqq6vfziIbg9kjG492VTa6pECTyWTO88Lh8BnRaPTvOf7yOvCKyCjgURF5CrhHRI4Cz18L +GlFRcUFZO+yd8XHsVs+sEVwTzQa3dnS0rJVRJ7DNwmmqh8kk8mH85ybi9663xCe0unw57pun9lP Xdf9LSlfYhE5kwLavmDBgjYRuYCOrkHgOUvPsG379Wg0+tS0adP2lvnmw0JX5FMKOc91Xb8T/VkU KBvAl8gtG5+zbfu1aDT6q2Jlo8eViG3bI4HpOf7ydtFzISLryWJHGQikDN6VePfe/rxVdZtlWV9Y tmzZqpwnf0hpbm5+Q1XTdqujGhoaDijkvFgsFksmk8cCv/b3vtOISAg4x3GceSVH+oFJV2UjHo8v aWtrOw54OodslAGfKVY2uqRABw8e7ARmw6UA+1oh7FDVJ1X1MVX9XWrVAsABwHfa2toe6IFrpNlb gUU2qepjInLskiVLnuvD63Z6v6r6EnBxtr9QKJTNs6G3SAJ/SP1vO47z6UJPXLp06epYLPZZ13Ub VfVevMUBQSYDD+Za1VZir6AU9k52WTaWLVu2KhaLnduTstGlSaRFixZti0aj7UNpEQk5jlMNbE6t mU6vCLleRI4souoNyWTyS2lH+rq6ummhUOhNPHsFwKfq6uoOCDjAK4EHEXChAMAYUxmYRMoawKCn UdXvGWN+DeA4zrbly5evpghf2Bx1tgR8Hjvcb1tbW2jw4MF+IdiyZcuWzmbgF8RisZndaVtPkTLj XJza/AyZK9s6wzQ3N78FvDVu3LhrqqurL1LVG4ARvvqPXbdu3cHA2zlrKdElXNdtCUwi5VqunPYQ QVWTxpicM/ABfs0e2TiHwCx7J2TIRlVV1ZeBG/DNoxQjG91xY9pKSrGpaplt20MB4vH4cmA5QCQS uagb9dPc3PzPSCQyW0TSEWwqQ6HQgWQ6wKuIBKMNDQvWZVlWxqy7iBS7DK+rrC3UGbxQsrS9w/2W lZWVkWkyaS0vL++W4u5LbNt+w3Gc91MLBg5hz0c0K+PGjasaMWJE+yho0aJFOwCT8j+8KxwO/922 7b+yxxfWKisrm05JgfY4tm13Kp8p/O+kk23yNxvGmDcsy0rLxnQCwXSCdCIbd6Zk43m6IBvdGXa3 +1WKSFlZWVnBIbKKQUQyohWpagcjr6pmlLEsa0yWqjJWF6jqih5p4F4geL/AfsEylmUNxfeFB9Yl Eon+ssqoU1Kh/tKz8eVAQ77yVVVVL7S1tS1L/0WjUf9CDxKJxBxV/Yd/n6qOoERvsBYvdkCaDvKZ CqLj7/W1bt++vSVYLhspd7qCZWPw4MEv+mWjvr5+WqC+2arqj6qFqhbkpdOdlUjBIANHBctkcfju ynWC3fpsGUIz/AQty+rwQEUkuC/jHMdx2lR1q6/8iIqKiowVDKpa4982xhT0g/c0xpgYmcsUp5x8 8skZo4lQKJQhJKr6HgMswLKI/J4995l3hlZVB+PFZhgJjAyOOPDMJpsD5xQ6ZOwX2La9IbBrNIF3 OCijItInpio/tm0vV1W/2+CkVPyGdlzXrRcRvyvkqjVr1hT8exQjG3ijl3bZSCaTQR1igE3+HYXK RpcVqIhkdG9V9azp06e3K5xwOHwocHBX6/eR0a0XkQ7d9ZQTtb8tn8BnnhgzZswQfGv3VbUtFAq9 5T9nxIgR28hcrVRl27bfB1UIrNe1LOvdwm+j59i1a9f75cUiIwAABepJREFUqtpuE1TVacuWLcsI 8WWMyVjqJiJBP7h+T2Vl5WtZetu5yCjnuu6x/u2UDGR8VPBiXQ4Ydu7cuRxvEgUAVR1fX1/v76RY qXi07UVc1+3LyT/AW8YtIu3vhogMKS8vz4idkXpHLV+ZouSzSNnIGG3atu1/RjQ0NAwFMkYsIlKQ bHRZgbqu+xyZkyGH79y585b6+voxkUjkhFQswD7xtRw0aNDrZPp4fSQSiXyvvr5+TH19/cThw4ff w55ITABvNDU1+cunfcUylnOJyJ3Tpk07NBwOD49EIheyZ3IMVW2zbTsjKlRfsWrVqh0i8qyvneUi 8kBdXd20cDg8PBqNfonMoM47/eUHCgsWLNhujCnIU0FEXgns+mYkEjknHA4PD4fDU4cPH/6oiLQP JVV1pWVZWTMl9Ffef//9zara/uEXkSGqek9dXV1d6r37Ib4YD6q6PhQK7S0b7699/1u2bf+orq7u mIMOOmhIJBI5HciI+mVZ1q8pgpRs/G+BxYPK+Vt+2XBd91ERaTf7qepK27YLko0uK7hEIrEw5faS RkTkClVdJyKzRWRKyt+qu8v/Nge2RwYLLFiwYLuq3omvSy8i16nqOlVdDvhTNTgicitZhrOu687E Cwid5jDHcd6xbXuTiPw05UeYvsBvFy9e3Odf9zSqepeq+pdwnhgKhd61bXsT8FAggMLjS5Ysea+P m9gjhEKhpynAa8FxnCfwDcNEZLSIPGXb9ibbtpsAfzxIFZE7s6V96Oe4xpifkPk8TguFQonUe/dt fMNZEbl7b92j67o/D8wzTAuFQq+0tbVtFZFnUotm0ry8ePHiYLSmTrFt+2kKcH0qLy9/nPyycZqv uIrIndkyOGSjOz1E17bty8jvQnAP3RwmicgHgV0HkaXdo0aNmgU8FNwfwKjqD2OxWNZeTXNz89t4 6Qs6sxW+WlZWdil7MUldPB5fkspDlfcDparzXNf9FgM0oZ5lWfOCQX+z0dzcvFRELgY6864wqjpz 0qRJd/dMC/uWRCLxtKrOopPfU1WfrKys/FEfNasDiURis23b56rq+k6KLnYc50t0wbXPtu25hcjG u+++uxS4hAJlIxaLFSwb3Vqet2HDhg9Gjx79B2PMSGCseM6JbXhRr78Xj8dvGTly5Hg8G8RCy7L+ 1NLS0v5FHDt2bMhxnHF4eWUWisjb1dXVf1m3bl27Aquurv7Atu0xvjKbR40atailpSXDOL5y5UrT 0tLy3MiRI/+Z+roNxxMyB9iiqi+KyCXxePwR8ghfS0vLm8OGDfurZVlDVHWUiFh4qQhaRWSRqt6W TCYvj8fjWb9Qo0aN2i/VM1wILHRd94VNmzb1StzRlpaWppEjRz4LVIvIaLzf000Z8BcBtyWTyW8s Xbo0q0F89OjRI1TVsOfZzm1paflHtrJdoaamZjjexy5d/7yWlpaMWAYjRoyoFJER6TLGmJc3bdrU /tHdsGGDW1NTkwRa0mUsy1qQkqUM+3hLS8uimpqaP6pqBVCTGjEYPDv6BuBPrute9t57793f3Nyc 9yM5ZswY2xgzMX1N4J3du3f/edOmTTkDHNfU1IxNvdDpe3l+06ZNOe10Y8aMqVTVkb5rvLlx48bO zEK6cePG/xs5cuQ7qYA+aU8CR1V3ishrqnrN5MmTb3711Vc79bqoqakZhffOpn+j2S0tLTlHVsOH Dy+zLGt/VX03dc7fN27cmLVDsmHDhhU1NTVPA2Up80kZnpLaJSIJVb3Pdd0vNzc3r8l2fiGyMXr0 6Db1otu3y4aIZJONhQXIxqXvvffe/RQx2dpjeXJS2TlrVHV3c3Pzps7P6F2mT59evnXr1lFlZWVu LBZrIdOtolDshoaGkao6aMeOHS25slv2E6ShoWEUULF9+/aN/bytfYHU19cPBYYlk8ltzc3Nmxmg vfB8NDY2lrW0tIxMJpP20KFDN6Rs+f0RqaurG15eXl69ZcuWTcXMuPdGWz4MslGiRIkSJUqUKFGi RIkSJUqUKFGiRIkS3eX/A5eMuplt//m7AAAAAElFTkSuQmCC "
       preserveAspectRatio="none"
       height="3.7032151"
       width="7.5870767" />
  </g>
</svg>
